%YAML 1.1
%TAG !u! tag:unity3d.com,2011:
--- !u!1001 &7810163709901203135
PrefabInstance:
  m_ObjectHideFlags: 0
  serializedVersion: 2
  m_Modification:
    m_TransformParent: {fileID: 0}
    m_Modifications:
    - target: {fileID: 2372517085664768896, guid: b6320dd8cedd01c4a88e587bdcf820f8, type: 3}
      propertyPath: m_Name
      value: Short Plank Bridge
      objectReference: {fileID: 0}
    - target: {fileID: 2372517085664768899, guid: b6320dd8cedd01c4a88e587bdcf820f8, type: 3}
      propertyPath: m_Size.x
      value: 0.42
      objectReference: {fileID: 0}
    - target: {fileID: 2372517085664768900, guid: b6320dd8cedd01c4a88e587bdcf820f8, type: 3}
      propertyPath: m_LocalPosition.x
      value: 0
      objectReference: {fileID: 0}
    - target: {fileID: 2372517085664768900, guid: b6320dd8cedd01c4a88e587bdcf820f8, type: 3}
      propertyPath: m_LocalPosition.y
      value: 0
      objectReference: {fileID: 0}
    - target: {fileID: 2372517085664768900, guid: b6320dd8cedd01c4a88e587bdcf820f8, type: 3}
      propertyPath: m_LocalPosition.z
      value: 0
      objectReference: {fileID: 0}
    - target: {fileID: 2372517085664768900, guid: b6320dd8cedd01c4a88e587bdcf820f8, type: 3}
      propertyPath: m_LocalRotation.x
      value: -0
      objectReference: {fileID: 0}
    - target: {fileID: 2372517085664768900, guid: b6320dd8cedd01c4a88e587bdcf820f8, type: 3}
      propertyPath: m_LocalRotation.y
      value: 0.043690003
      objectReference: {fileID: 0}
    - target: {fileID: 2372517085664768900, guid: b6320dd8cedd01c4a88e587bdcf820f8, type: 3}
      propertyPath: m_LocalRotation.z
      value: -0
      objectReference: {fileID: 0}
    - target: {fileID: 2372517085664768900, guid: b6320dd8cedd01c4a88e587bdcf820f8, type: 3}
      propertyPath: m_LocalRotation.w
      value: 0.99904513
      objectReference: {fileID: 0}
    - target: {fileID: 2372517085664768900, guid: b6320dd8cedd01c4a88e587bdcf820f8, type: 3}
      propertyPath: m_RootOrder
      value: 0
      objectReference: {fileID: 0}
    - target: {fileID: 2372517085664768900, guid: b6320dd8cedd01c4a88e587bdcf820f8, type: 3}
      propertyPath: m_LocalEulerAnglesHint.x
      value: 0
      objectReference: {fileID: 0}
    - target: {fileID: 2372517085664768900, guid: b6320dd8cedd01c4a88e587bdcf820f8, type: 3}
      propertyPath: m_LocalEulerAnglesHint.y
      value: 0
      objectReference: {fileID: 0}
    - target: {fileID: 2372517085664768900, guid: b6320dd8cedd01c4a88e587bdcf820f8, type: 3}
      propertyPath: m_LocalEulerAnglesHint.z
      value: 0
      objectReference: {fileID: 0}
    - target: {fileID: 5956485095575293411, guid: b6320dd8cedd01c4a88e587bdcf820f8, type: 3}
      propertyPath: m_LocalScale.x
      value: 0.40365
      objectReference: {fileID: 0}
    m_RemovedComponents: []
  m_SourcePrefab: {fileID: 100100000, guid: b6320dd8cedd01c4a88e587bdcf820f8, type: 3}
